…
Jennifer Baltzer reported that `tt_test()` fails if the census data
contains quadrats with no species. Here I run `tt_test()` with the
census data that Jennifer sent me, and with a synthetic habitat dataset.
I get no error, suggesting that the problem was not in the census data
but in the habitat data. I’ll need the habitat data to explore what the
problem might be.

``` r
path <- here::here("inst/issues/43/private/scotty.tree1.rdata")
load(path)
scotty <- scotty.tree1
as_tibble(scotty)
```

    ## # A tibble: 38,054 x 16
    ##    treeID tag   sp    quadrat    gx    gy stemID   dbh   hom ExactDate
    ##     <dbl> <chr> <chr> <chr>   <dbl> <dbl>  <int> <dbl> <dbl> <chr>    
    ##  1  31572 01-0~ pima  A1       0.85 17.4   36933    63   1.3 2013-05-~
    ##  2  31573 01-0~ pima  A1       1.26 19.2   36935    75   1.3 2012-06-~
    ##  3  31574 01-0~ pima  A1      17.4  13.9   36936    96   1.3 2012-06-~
    ##  4  31575 01-0~ pima  A1      15.0  18.6   36937   102   1.3 2012-06-~
    ##  5  31576 01-0~ pima  B1      20.8  13.6   36938    74   1.3 2012-06-~
    ##  6  31577 01-0~ pima  B1      33.3   2.33  36939    89   1.3 2012-06-~
    ##  7  31578 01-0~ pima  B1      30.1  16.6   36940    80   1.3 2012-06-~
    ##  8  31579 01-0~ pima  B1      38.4   0.64  36941    76   1.3 2012-06-~
    ##  9  31580 01-0~ pima  B1      39.2   4.81  36942    95   1.3 2012-06-~
    ## 10  31581 01-0~ pima  B1      37.7   9.66  36943    72   1.3 2012-06-~
    ## # ... with 38,044 more rows, and 6 more variables: codes <lgl>,
    ## #   date <int>, status <chr>, nostems <int>, agb <dbl>, ba <dbl>
…
Create habitat data.

``` r
# Create elevation data
xy <- expand.grid(x = seq(0, 125, by = 20), y = seq(0, 800, by = 20))
elev <- sample.int(500, nrow(xy), replace = TRUE)
elevation <- bind_cols(tibble::as.tibble(xy), elev = elev)

# Create habitat data from elevation data
hab <- fgeo_habitat(elevation, xdim = 800, ydim = 125, gridsize = 20, n = 4)
hab
```

    ## # A tibble: 49 x 3
    ##       gx    gy habitats
    ##  * <int> <int>    <int>
    ##  1     0     0        3
    ##  2     0    20        3
    ##  3     0    40        4
    ##  4     0    60        1
    ##  5     0    80        1
    ##  6     0   100        1
    ##  7     0   120        3
    ##  8    20     0        2
    ##  9    20    20        1
    ## 10    20    40        3
    ## # ... with 39 more rows
…
