Habitat-species associations • fgeo.habitat
…
Producing analytic summaries.

tt_df %>% 
  group_by(metric) %>% 
  summarise(mean = mean(value), max = max(value), min = min(value))
#> # A tibble: 24 x 4
#>    metric      mean   max   min
#>    <chr>      <dbl> <dbl> <dbl>
#>  1 Eq.Hab.1    2.33     3     2
#>  2 Eq.Hab.2    3.33     5     2
#>  3 Eq.Hab.3    4        6     3
#>  4 Eq.Hab.4    9.67    12     7
#>  5 Gr.Hab.1  662.    1579    76
#>  6 Gr.Hab.2 1013.    1471   597
#>  7 Gr.Hab.3  594.     981   118
#>  8 Gr.Hab.4  937.    1214   483
#>  9 Ls.Hab.1  936     1522    19
#> 10 Ls.Hab.2  583.     998   127
#> # ... with 14 more rows
…
